{
  "code": 0,
  "msg": "result.success",
  "data": {
    "records": [
      {
        "header": "https://img.bitunix.com/user/avatar/04.png",
        "nickname": "Fic Mic",
        "maxFollow": 500,
        "currentFollow": 5,
        "roi": "0.874816",
        "pl": "27178.416518",
        "mdd": "0.4351",
        "aum": "15599.02220038572000000000",
        "full": false,
        "myself": false,
        "uid": 348686197,
        "winRate": "0.5945",
        "dailyWinRate": [
          { "date": 20260604, "amount": "-0.215887" },
          { "date": 20260605, "amount": "2.319341" },
          { "date": 20260606, "amount": "1.626159" },
          { "date": 20260607, "amount": "0.451908" },
          { "date": 20260608, "amount": "0.468603" },
          { "date": 20260609, "amount": "0.426898" },
          { "date": 20260610, "amount": "0.685164" },
          { "date": 20260611, "amount": "0.946886" },
          { "date": 20260612, "amount": "0.874816" }
        ],
        "followed": false,
        "followerUid": null,
        "winCount": 22,
        "symbolList": ["BTC", "SOL", "HYPE"],
        "privateMode": false,
        "clcLimit": null
      },
      {
        "header": "https://img.bitunix.com/user/avatar/customize/467747127/202511121756404295423.png",
        "nickname": "Tkach555",
        "maxFollow": 500,
        "currentFollow": 7,
        "roi": "0.214225",
        "pl": "14032.987769",
        "mdd": "0.0712",
        "aum": "2553.57699214059579189657",
        "full": false,
        "myself": false,
        "uid": 852431131,
        "winRate": "0.3157",
        "dailyWinRate": [
          { "date": 20260514, "amount": "0.252442" },
          { "date": 20260515, "amount": "0.307326" },
          { "date": 20260516, "amount": "0.261567" },
          { "date": 20260517, "amount": "0.274161" },
          { "date": 20260518, "amount": "0.105029" },
          { "date": 20260519, "amount": "0.183685" },
          { "date": 20260520, "amount": "0.024417" },
          { "date": 20260521, "amount": "0.006298" },
          { "date": 20260522, "amount": "0.157476" },
          { "date": 20260523, "amount": "0.187468" },
          { "date": 20260524, "amount": "0.223778" },
          { "date": 20260525, "amount": "0.142906" },
          { "date": 20260526, "amount": "0.182270" },
          { "date": 20260527, "amount": "0.212265" },
          { "date": 20260528, "amount": "0.214225" },
          { "date": 20260529, "amount": "0.214225" },
          { "date": 20260530, "amount": "0.214225" },
          { "date": 20260531, "amount": "0.214225" },
          { "date": 20260601, "amount": "0.214225" },
          { "date": 20260602, "amount": "0.214225" },
          { "date": 20260603, "amount": "0.214225" },
          { "date": 20260604, "amount": "0.214225" },
          { "date": 20260605, "amount": "0.214225" },
          { "date": 20260606, "amount": "0.214225" },
          { "date": 20260607, "amount": "0.214225" },
          { "date": 20260608, "amount": "0.214225" },
          { "date": 20260609, "amount": "0.214225" },
          { "date": 20260610, "amount": "0.214225" },
          { "date": 20260611, "amount": "0.214225" },
          { "date": 20260612, "amount": "0.214225" }
        ],
        "followed": false,
        "followerUid": null,
        "winCount": 6,
        "symbolList": ["KAS", "XRP", "LINK"],
        "privateMode": false,
        "clcLimit": null
      },
      {
        "header": "https://img.bitunix.com/user/avatar/avatar_3.png",
        "nickname": "Ai Copy Trade",
        "maxFollow": 500,
        "currentFollow": 34,
        "roi": "1.529931",
        "pl": "12589.692307",
        "mdd": "0.0915",
        "aum": "23471.36992314827009927212",
        "full": false,
        "myself": false,
        "uid": 429883187,
        "winRate": null,
        "dailyWinRate": [
          { "date": 20260514, "amount": "-0.118351" },
          { "date": 20260515, "amount": "0.025553" },
          { "date": 20260516, "amount": "0.094396" },
          { "date": 20260517, "amount": "0.144251" },
          { "date": 20260518, "amount": "0.179491" },
          { "date": 20260519, "amount": "0.192433" },
          { "date": 20260520, "amount": "0.141513" },
          { "date": 20260521, "amount": "0.137942" },
          { "date": 20260522, "amount": "0.313827" },
          { "date": 20260523, "amount": "0.213215" },
          { "date": 20260524, "amount": "0.189737" },
          { "date": 20260525, "amount": "0.167476" },
          { "date": 20260526, "amount": "0.287206" },
          { "date": 20260527, "amount": "0.419690" },
          { "date": 20260528, "amount": "0.500132" },
          { "date": 20260529, "amount": "0.517244" },
          { "date": 20260530, "amount": "0.477805" },
          { "date": 20260531, "amount": "0.496988" },
          { "date": 20260601, "amount": "0.725540" },
          { "date": 20260602, "amount": "1.194076" },
          { "date": 20260603, "amount": "1.459158" },
          { "date": 20260604, "amount": "1.483605" },
          { "date": 20260605, "amount": "1.767161" },
          { "date": 20260606, "amount": "1.784759" },
          { "date": 20260607, "amount": "1.538658" },
          { "date": 20260608, "amount": "1.564086" },
          { "date": 20260609, "amount": "1.701047" },
          { "date": 20260610, "amount": "1.720558" },
          { "date": 20260611, "amount": "1.511119" },
          { "date": 20260612, "amount": "1.529931" }
        ],
        "followed": false,
        "followerUid": null,
        "winCount": 0,
        "symbolList": ["BTC"],
        "privateMode": false,
        "clcLimit": null
      }
    ],
    "total": 4025,
    "totalPage": 1342,
    "page": 1
  },
  "success": true
}
